411459 178356 449
553555 457565 470
766475 212625 509
589385 386539 470
548922 880879 525
644815 388324 509
130874 612487 470
781026 916918 525
772714 911067 525
716394 762918 424
299839 835586 509
699324 642840 442
857122 167936 525
53863 571847 470
38128 229215 386
813809 744578 468
215535 130534 383
601371 96621 470
358453 987417 525
927217 231224 525
380198 199670 443
866913 173482 525
468665 427763 444
893309 90458 525
952192 332798 525
804951 684491 504
258121 544167 470
291311 160517 443
453177 65434 449
45228 551675 470
538653 814223 509
702940 676864 442
885724 729788 525
310357 202716 443
104059 11509 351
9628 462652 449
174148 611423 470
657905 164828 509
143649 321807 443
525184 905035 525
845255 823964 525
291243 340602 384
280782 965038 525
131293 108050 349
927084 574686 525
474235 619924 470
265087 465529 449
246939 958416 525
680940 109025 509
620083 562855 447
291188 931733 525
694459 638630 442
749751 238760 509
886106 762142 525
517246 642611 509
203388 491378 449
369474 521162 470
899808 515894 525
181906 384967 443
89477 457040 449
5247 595890 470
702862 958156 525
466119 22392 449
723141 665357 504
176213 703604 509
515031 981604 525
635338 723694 504
134439 899293 525
962453 20546 525
175640 479699 449
177361 379027 443
485281 546834 470
414393 899294 525
576933 596298 434
798465 666409 504
425864 730626 509
837135 962110 525
606317 928149 525
823505 881735 525
230879 961956 525
492592 579817 470
655246 877479 525
802211 879742 525
543719 733857 509
688878 916532 525
128519 466721 449
166387 587098 470
900775 957673 507
449457 487960 444
699763 885389 525
441125 450689 387
841784 866094 419
812527 899745 525
679247 987281 525
373179 481108 449
403258 959433 525
480169 646032 509
285392 721059 509
913768 966315 507
137309 790571 509
1 64 113
1024 256 179
16 65536 340
306250 607100 470
188000 325097 443
738282 415000 509
524288 16 470
64 128 119
8 256 128
1024 4096 238
726 2253 183
109750 168954 383
2048 16384 276
22 47 112
8 2 17
35250 35750 324
301000 447261 449
5 5 6
73392 23703 340
128 524288 470
477500 788547 509
8192 8192 14
1024 262144 443
16384 131072 354
2528 12104 268
4547 742775 509
281231 104863 443
623945 166672 470
102703 815551 509
600166 346936 470
553304 571851 421
655745 659026 429
817011 579618 509
949805 507564 525
307056 285971 389
831590 399526 509
468507 16015 449
278524 646527 509
430045 725258 509
383297 481936 449
942625 554856 525
921458 113504 525
232732 460994 449
317789 320746 353
75996 849401 525
467609 510908 426
756422 428685 509
498551 570271 470
31012 982114 525
982815 278961 525
788336 523845 509
557190 536261 452
583642 388603 470
923193 341929 525
122787 280113 443
882488 490729 525
387535 374067 423
524859 562915 452
971550 604691 525
354324 31279 443
320443 827526 509
9694 482858 449
91862 614616 470
827308 589166 509
614378 198837 470
424824 75005 449
35350 203625 383
364413 41100 443
262656 171800 443
462267 92072 449
4748 883469 525
172281 438319 449
774015 621453 509
93369 383177 443
860898 573372 525
606480 965615 525
609556 522789 452
502681 68364 449
415744 120259 449
675552 801920 504
176575 493242 449
715108 710902 411
760319 817970 468
609516 149379 470
510312 692979 509
112619 931870 525
19738 59453 340
818708 570612 509
382232 556043 470
443353 550045 470
251189 195436 443
97534 507873 449
803905 72152 509
261448 170237 443
31062 53508 340
647492 293049 509
386394 422790 449
234637 489177 449
148694 198768 383
60958 398171 443
349295 569068 470
333430 496246 449
