931733 291188 525
638630 694459 442
238760 749751 509
762142 886106 525
642611 517246 509
491378 203388 449
521162 369474 470
515894 899808 525
384967 181906 443
457040 89477 449
595890 5247 470
958156 702862 525
22392 466119 449
665357 723141 504
703604 176213 509
981604 515031 525
723694 635338 504
899293 134439 525
20546 962453 525
479699 175640 449
379027 177361 443
546834 485281 470
899294 414393 525
596298 576933 434
666409 798465 504
803711 567543 509
270405 776504 509
242623 761868 509
999213 807000 525
497417 907979 525
423010 702817 509
338155 479022 449
127665 660909 509
623362 751652 509
927291 662414 525
353980 617266 470
102547 820522 509
234916 900813 525
991950 516045 525
314511 345418 384
427165 172565 449
949068 118222 525
394294 697569 509
504570 705895 509
613874 393507 470
96325 1987 351
995212 551088 525
211997 948683 525
700336 637082 442
299496 349564 441
481034 141832 449
962354 653475 525
68494 97785 351
613830 711474 509
571096 574648 372
261417 928340 525
560766 998261 525
210035 724689 509
430584 955060 525
348567 228809 443
745000 558662 509
109751 959095 525
907779 740212 525
891498 835951 525
699719 122320 509
778355 705199 468
872878 180753 525
278538 254914 407
966387 455576 525
30225 406572 443
334912 51689 443
49950 805845 509
530535 409882 470
364942 259984 441
488793 961118 525
519781 227714 470
701013 747997 504
2414 143736 375
493891 122997 449
245316 893912 525
599111 193611 470
888567 537876 525
792789 471989 509
441770 167105 449
87881 759177 509
325070 471994 449
277839 936996 525
346879 375019 410
149207 322578 443
283697 711820 509
453738 152204 449
900200 317682 525
975621 154752 525
277748 902614 525
796526 469512 509
663122 37269 509
575144 909841 525
896034 65895 525
232999 367933 441
641314 337804 509
324002 320880 353
257876 966383 525
855606 116046 525
438623 118959 449
344984 4814 443
671221 236524 509
68410 798721 509
467677 571422 470
988240 44031 525
513543 259630 470
296898 298971 371
208812 690869 509
756763 386246 509
268383 619050 470
471059 503967 426
339051 909697 525
390285 309265 441
939514 111131 525
230090 760096 509
279114 378138 441
128866 575073 470
887998 950334 507
35961 197276 383
755510 355676 509
615305 24201 470
323171 269053 407
474127 426407 444
812652 46187 509
179442 230890 443
249061 81035 443
504936 650500 509
473969 588111 470
213447 409426 443
169522 413484 449
305826 443536 449
532813 962839 525
913173 434691 525
146171 420811 449
290691 949134 525
487539 901681 525
684938 905995 525
846606 810710 525
371101 159065 443
389955 659258 509
254498 550542 470
715246 153220 509
741331 273638 509
683063 189216 509
116904 954777 525
912517 366789 525
329628 422729 449
857419 445330 525
380345 757006 509
220345 517795 470
419476 671036 509
91236 707883 509
32798 104414 351
263479 452047 449
625509 403899 470
468645 167638 449
320857 880006 525
667849 698096 442
401516 576392 470
45374 865116 525
231906 518419 470
941147 957890 414
917424 75738 525
346948 312771 441
830565 811974 450
997214 567292 525
789380 764245 468
868659 602654 525
54701 822177 509
740280 646342 504
813979 680210 504
74421 208926 383
907021 649040 525
739637 742269 393
607386 308537 470
341160 785010 509
257106 353496 441
943437 282307 525
109282 688734 509
500708 290386 449
371882 939847 525
218297 497922 449
614781 161262 470
983439 86956 525
247502 669481 509
349691 723719 509
446849 575685 470
224726 424112 449
680585 868074 525
690815 964362 525
263577 802175 509
155671 31975 375
828485 520682 509
723621 613313 509
903698 937767 476
391819 224329 443
236456 789784 509
951046 610115 525
211276 851236 525
520717 448690 470
686613 458777 509
34463 384613 443
322929 133463 443
1537 773392 509
251959 517718 470
319894 692352 509
238531 515535 470
550422 475564 470
88877 67017 351
4784 274043 443
12576 506779 449
296564 910806 525
520921 249031 470
614471 761814 509
210504 246401 443
705178 649393 504
34006 897116 525
544783 253845 470
27237 871138 525
388856 60525 443
267081 279195 407
308934 708749 509
698518 505611 509
572627 859355 525
133398 301599 443
808378 91615 509
2421 145974 375
909208 619146 525
895164 37547 525
283947 523680 470
173073 105668 383
516988 503329 470
757173 721282 424
592420 61772 470
636500 298614 509
577808 495480 470
204230 903580 525
409191 886742 525
260302 416952 449
718550 496023 509
587637 393700 470
53878 41133 340
660278 104263 509
656013 963085 525
970 555442 470
175314 454164 449
